<?xml version="1.0" encoding="UTF-8"?>
<svg width="157px" height="47px" viewBox="0 0 157 47" version="1.1" xmlns="http://www.w3.org/2000/svg" xmlns:xlink="http://www.w3.org/1999/xlink">
    <!-- Generator: Sketch 51.2 (57519) - http://www.bohemiancoding.com/sketch -->
    <title>logo-white</title>
    <desc>Created with Sketch.</desc>
    <defs></defs>
    <g id="Page-1" stroke="none" stroke-width="1" fill="none" fill-rule="evenodd">
        <g id="hostwriter-ambassador-agreement-181122" transform="translate(-1257.000000, -2550.000000)">
            <g id="footer" transform="translate(0.000000, 2520.000000)">
                <g id="logo-white" transform="translate(1257.000000, 30.000000)">
                    <g id="Group-2">
                        <g id="Group" transform="translate(0.000000, 8.000000)" fill="#FFFFFF">
                            <path d="M0,3.67424908 L0.328253968,1.18192918 L6.69190476,1.18192918 L6.69190476,9.88352869 L6.85545788,9.91279609 C8.3469475,8.72201465 9.97214896,8.13264957 11.7327839,8.14297924 C13.3034676,8.14297924 14.4339927,8.54583639 15.1249328,9.35269841 C15.815873,10.1584127 16.161917,11.3727228 16.161917,12.9950549 L16.161917,21.1285226 C16.161917,21.3810256 16.1865934,21.5417094 16.2365201,21.6117216 C16.285873,21.6817338 16.4258974,21.7270696 16.6548718,21.7477289 L18.1784982,21.9589133 L18.1784982,24.3783516 L11.5462759,24.3783516 L11.5462759,14.3178266 C11.5462759,12.5709646 11.0079853,11.6969597 9.93025641,11.6969597 C8.85310134,11.6969597 7.79431013,12.0797314 6.75101343,12.8447009 L6.75101343,21.1285226 C6.75101343,21.3810256 6.77798535,21.5417094 6.83078144,21.6117216 C6.8841514,21.6817338 7.01728938,21.7270696 7.22962149,21.7477289 L8.64822955,21.9589133 L8.64822955,24.3783516 L0.268571429,24.3783516 L0.268571429,21.9589133 L1.59937729,21.7488767 C1.7921978,21.7282173 1.9190232,21.6759951 1.98214896,21.5916361 C2.04470085,21.5055556 2.07626374,21.3540537 2.07626374,21.1331136 L2.07626374,4.90405372 C2.07626374,4.55456654 1.94656899,4.33936508 1.68775336,4.2590232 L0,3.67424908" id="Fill-1"></path>
                            <path d="M23.2629915,16.2391453 C23.2629915,19.6542491 24.3407204,21.366105 26.497326,21.3764347 C28.6326984,21.3764347 29.7012454,19.6542491 29.7012454,16.209304 C29.7012454,14.4733455 29.4475946,13.2314896 28.9408669,12.4871795 C28.4341392,11.7417216 27.6594139,11.3692796 26.6166911,11.3692796 C24.3808913,11.3589499 23.2629915,12.9830037 23.2629915,16.2391453 Z M18.3638584,16.4021245 C18.3638584,13.8076557 19.0622589,11.7698413 20.4607814,10.2886813 C21.8581563,8.80809524 23.9298291,8.06837607 26.6757998,8.06837607 C29.3827473,8.06837607 31.3798168,8.78112332 32.6681563,10.2071917 C33.9559219,11.6338339 34.6003785,13.5861416 34.6003785,16.0618193 C34.6003785,18.7435165 33.9014042,20.8501954 32.5034554,22.3801343 C31.1055067,23.9123687 29.0344078,24.6773382 26.2884371,24.6773382 C23.6015751,24.6773382 21.6090965,23.9341758 20.3104274,22.4467033 C19.012906,20.9598046 18.3638584,18.9449451 18.3638584,16.4021245 Z" id="Fill-2"></path>
                            <path d="M36.1538462,23.5898535 L36.1538462,19.136044 L39.4249084,19.3793651 L39.7187302,21.1549206 C39.7388156,21.4286569 39.8627717,21.5847497 40.091746,21.6254945 C40.6983272,21.8280708 41.4845299,21.9284982 42.4492063,21.9284982 C44.1472894,21.9284982 44.9966178,21.3925031 44.9966178,20.3193651 C44.9966178,19.7638584 44.7596093,19.3500977 44.2850183,19.0769353 C43.8104274,18.8054945 43.1137485,18.5879976 42.1944078,18.4261661 C41.6647253,18.3257387 41.2779365,18.2522833 41.0334676,18.2069475 C40.7884249,18.1616117 40.4177045,18.0686447 39.9213065,17.9274725 C39.4254823,17.7868742 39.0473016,17.6479976 38.7873382,17.5119902 C38.5262271,17.3759829 38.2100244,17.1751282 37.8364347,16.9088523 C37.4628449,16.6420024 37.1873871,16.3521978 37.0112088,16.0405861 C36.8338828,15.7289744 36.6743468,15.3410379 36.5320269,14.8784982 C36.389707,14.4153846 36.318547,13.9063614 36.318547,13.3525763 C36.318547,11.6011233 36.9607082,10.2829426 38.2456044,9.39688645 C39.5299267,8.51083028 41.1258608,8.06837607 43.0339805,8.06837607 C45.266337,8.06837607 47.1314164,8.352442 48.6297924,8.92172161 L48.6297924,13.3233089 L45.3828327,13.1115507 L45.0855678,11.496105 C45.0660562,11.243602 44.9610379,11.0989866 44.7716606,11.0582418 C44.241978,10.897558 43.5877656,10.8160684 42.8090232,10.8160684 C41.2102198,10.8160684 40.4108181,11.3400122 40.4108181,12.3867521 C40.4108181,12.7586203 40.570928,13.0690842 40.8905739,13.3158486 C41.2102198,13.5620391 41.5602808,13.7433822 41.9396093,13.8587302 C42.3195116,13.9752259 42.854359,14.1135287 43.5430037,14.2742125 C43.723199,14.3149573 43.8678144,14.3442247 43.9779976,14.3643101 C44.7159951,14.5261416 45.332906,14.701746 45.8275824,14.8928449 C46.321685,15.0850916 46.8479243,15.3594017 47.4063004,15.7169231 C47.9646764,16.0744444 48.3847497,16.5616606 48.667094,17.180293 C48.9488645,17.8006471 49.0900366,18.5432357 49.0900366,19.4086325 C49.0900366,21.1795971 48.458779,22.501221 47.1985592,23.3717827 C45.9377656,24.2417705 44.2689499,24.6773382 42.1944078,24.6773382 C40.9336142,24.6773382 39.6934799,24.5516606 38.4745788,24.3026007 C37.2562515,24.052967 36.4821001,23.8148107 36.1538462,23.5898535" id="Fill-3"></path>
                            <path d="M81.2784371,8.12346764 L80.87558,10.6031624 L82.6230159,10.8453358 L80.3229426,19.4482295 L80.1180708,19.4482295 L77.4891697,8.52976801 L72.9085348,8.53206349 L70.1901099,19.450525 L70.1677289,19.3816606 L67.7178755,10.7781929 L69.4354701,10.6031624 L69.4354701,8.12346764 L57.7600733,8.12346764 C57.5907814,8.12346764 57.5064225,8.02418803 57.5064225,7.82505495 L57.5064225,3.47741148 L54.6083761,3.47741148 C54.4390842,5.1404884 54.0482784,6.34791209 53.4359585,7.10083028 C52.8236386,7.8531746 51.8446154,8.2979243 50.5006105,8.43737485 L50.5006105,11.185641 L52.6514774,11.185641 C52.8104396,11.185641 52.8902076,11.2854945 52.8902076,11.4846276 L52.8902076,19.517094 C52.8902076,21.2461661 53.2792918,22.4977778 54.0557387,23.2719292 C54.8321856,24.0472283 56.1170818,24.4340171 57.9098535,24.4340171 C59.5626007,24.4340171 61.2256777,24.0277167 62.8985104,23.2139683 L62.0767277,20.5196459 C61.2004274,20.8490476 60.3740537,21.0131746 59.5976068,21.0131746 C58.780989,21.0131746 58.2283516,20.8289621 57.9396947,20.4599634 C57.650464,20.0909646 57.5064225,19.4378999 57.5064225,18.5001954 L57.5064225,11.185641 L62.8640781,11.185641 L66.7635287,24.0604274 L72.2755556,24.0604274 L74.6881074,13.8122466 L74.8740415,13.8145421 L77.2642125,24.0604274 L82.0893162,24.0604274 L85.8395604,11.420928 C85.93884,11.0490598 86.1833089,10.8304151 86.5712454,10.7661416 L87.677094,10.542906 L87.677094,8.12346764 L81.2784371,8.12346764" id="Fill-4"></path>
                            <path d="M88.5252747,10.8476313 L88.5252747,8.36678877 L93.9179365,8.36678877 L94.2915263,10.8906716 L94.47,10.8906716 C95.6556166,9.00837607 97.0943101,8.06837607 98.7872283,8.06837607 C99.9131624,8.06837607 100.798071,8.15789988 101.445397,8.33637363 L101.445397,14.0033455 L97.7714774,13.8702076 L97.4730647,12.26337 C97.4328938,12.0355433 97.2986081,11.9213431 97.0696337,11.9213431 C96.411978,11.9213431 95.6751282,12.2788645 94.8590842,12.9916117 L94.8590842,21.0665446 C94.8590842,21.3144567 94.8860562,21.4728449 94.9405739,21.5417094 C94.9956654,21.6117216 95.1328205,21.6559096 95.3514652,21.676569 L98.3837973,21.9141514 L98.3837973,24.3037485 L88.3760684,24.3037485 L88.3760684,21.8843101 L89.7499145,21.7046886 C89.9496215,21.685177 90.0810379,21.6335287 90.1464591,21.5485958 C90.2107326,21.463663 90.2428694,21.3121612 90.2428694,21.0935165 L90.2428694,12.1445788 C90.2428694,11.7968132 90.1527717,11.6493284 89.8549328,11.5024176 C89.557094,11.3560806 88.5252747,10.8476313 88.5252747,10.8476313" id="Fill-5"></path>
                            <path d="M104.635543,5.32814408 C104.157509,4.85068376 103.917631,4.17294261 103.917631,3.29721612 C103.917631,2.42034188 104.157509,1.75350427 104.635543,1.29498168 C105.113004,0.837606838 105.790745,0.608058608 106.667619,0.608058608 C107.564005,0.608058608 108.253223,0.837606838 108.736422,1.29498168 C109.218474,1.75350427 109.460647,2.42034188 109.460647,3.29721612 C109.460647,4.17294261 109.213883,4.85068376 108.720354,5.32814408 C108.227973,5.80675214 107.543346,6.0454823 106.667619,6.0454823 C105.790745,6.0454823 105.113004,5.80675214 104.635543,5.32814408 Z M102.722833,24.4322955 L102.722833,22.0128571 L104.277448,21.8039683 C104.476581,21.7833089 104.607998,21.7316606 104.673993,21.6467277 C104.737118,21.5629426 104.769829,21.4097192 104.769829,21.1916484 L104.769829,12.1990965 C104.769829,11.850757 104.63956,11.6367033 104.381893,11.5575092 L102.722833,10.9750305 L103.052234,8.49533578 L109.38547,8.49533578 L109.38547,21.1916484 C109.38547,21.4407082 109.413016,21.6002442 109.46696,21.6691087 C109.522625,21.7391209 109.65978,21.7833089 109.878999,21.8039683 L111.447387,22.0128571 L111.447387,24.4322955 L102.722833,24.4322955 Z" id="Fill-6"></path>
                            <path d="M111.330891,11.185641 L111.330891,8.43737485 C112.674896,8.2979243 113.653919,7.8531746 114.266239,7.10083028 C114.877985,6.34848596 115.269939,5.14106227 115.438657,3.47741148 L118.336703,3.47741148 L118.336703,7.82505495 C118.336703,8.02418803 118.419915,8.12346764 118.58978,8.12346764 L122.907009,8.12346764 L122.907009,11.185641 L118.336703,11.185641 L118.336703,18.5001954 C118.336703,19.4378999 118.481319,20.0909646 118.769976,20.4599634 C119.058632,20.8289621 119.610696,21.0131746 120.427888,21.0131746 C121.203761,21.0131746 122.030134,20.8490476 122.907009,20.5196459 L123.728791,23.2139683 C122.055958,24.0277167 120.392308,24.4340171 118.73956,24.4340171 C116.946789,24.4340171 115.662466,24.0472283 114.88602,23.2719292 C114.108999,22.4977778 113.720488,21.2461661 113.720488,19.517094 L113.720488,11.4846276 C113.720488,11.2854945 113.640147,11.185641 113.481758,11.185641 L111.330891,11.185641" id="Fill-7"></path>
                            <path d="M128.885592,14.759707 L133.75431,14.759707 C133.735372,12.4998046 132.968107,11.3692796 131.454237,11.3692796 C129.901343,11.3692796 129.04398,12.4998046 128.885592,14.759707 Z M123.956044,16.289072 C123.956044,13.62 124.665348,11.5821856 126.08453,10.1762027 C127.503712,8.77079365 129.323455,8.06837607 131.544335,8.06837607 C133.69348,8.06837607 135.368034,8.67151404 136.569145,9.87778999 C137.77083,11.0852137 138.370525,12.9818559 138.370525,15.5671429 C138.370525,16.0870696 138.349866,16.7332479 138.310269,17.5073993 L128.855751,17.5073993 C129.014139,19.9176557 130.219267,21.1216361 132.469988,21.1216361 C133.651587,21.1216361 135.193004,20.7732967 137.091941,20.076044 L138.248291,23.1089499 C136.093407,24.1442125 133.991319,24.6670085 131.936288,24.6773382 C129.120879,24.6773382 127.087082,23.9215507 125.834322,22.4094017 C124.582711,20.8989744 123.956044,18.8588645 123.956044,16.289072 Z" id="Fill-8"></path>
                            <path d="M139.450549,10.9210867 L139.779951,8.36678877 L145.172039,8.36678877 L145.545629,10.8906716 L145.724103,10.8906716 C146.910293,9.00837607 148.34956,8.06837607 150.042479,8.06837607 C151.167265,8.06837607 152.053321,8.15789988 152.700647,8.33637363 L152.700647,14.0033455 L149.026154,13.8702076 L148.727741,12.26337 C148.686996,12.0355433 148.553284,11.9213431 148.324884,11.9213431 C147.666081,11.9213431 146.930379,12.2788645 146.113761,12.9916117 L146.113761,21.0665446 C146.113761,21.3144567 146.140733,21.4728449 146.19525,21.5417094 C146.250342,21.6117216 146.387497,21.6559096 146.606716,21.676569 L149.638474,21.9141514 L149.638474,24.3037485 L139.630745,24.3037485 L139.630745,21.8843101 L141.005739,21.7046886 C141.204872,21.685177 141.335714,21.6335287 141.401709,21.5485958 C141.464835,21.463663 141.497546,21.3121612 141.497546,21.0935165 L141.497546,12.1445788 C141.497546,11.7968132 141.367851,11.5827595 141.109609,11.5024176 L139.450549,10.9210867" id="Fill-9"></path>
                        </g>
                        <polygon id="Fill-10" fill="#FE5621" points="152 47 157 47 157 0 152 0"></polygon>
                    </g>
                </g>
            </g>
        </g>
    </g>
</svg>